^C:\USERS\USER\DESKTOP\MAGSHIMIM\YEAR B - GRADE 11\ADVANCED PROGRAMMING\סמסטר ב\LESSON 15 - THE TRIVIA PROJECT\TRIVIA\SERVER\SERVER\HANDLERS.CPP|C:\USERS\USER\DESKTOP\MAGSHIMIM\YEAR B - GRADE 11\ADVANCED PROGRAMMING\סמסטר ב\LESSON 15 - THE TRIVIA PROJECT\TRIVIA\SERVER\SERVER\INFRASTRUCTURE.CPP|C:\USERS\USER\DESKTOP\MAGSHIMIM\YEAR B - GRADE 11\ADVANCED PROGRAMMING\סמסטר ב\LESSON 15 - THE TRIVIA PROJECT\TRIVIA\SERVER\SERVER\MANAGERS.CPP|C:\USERS\USER\DESKTOP\MAGSHIMIM\YEAR B - GRADE 11\ADVANCED PROGRAMMING\סמסטר ב\LESSON 15 - THE TRIVIA PROJECT\TRIVIA\SERVER\SERVER\REQUEST.CPP|C:\USERS\USER\DESKTOP\MAGSHIMIM\YEAR B - GRADE 11\ADVANCED PROGRAMMING\סמסטר ב\LESSON 15 - THE TRIVIA PROJECT\TRIVIA\SERVER\SERVER\RESPONSE.CPP
C:\USERS\USER\DESKTOP\MAGSHIMIM\YEAR B - GRADE 11\ADVANCED PROGRAMMING\סמסטר ב\LESSON 15 - THE TRIVIA PROJECT\TRIVIA\SERVER\SERVER\X64\DEBUG\VC141.PDB
C:\USERS\USER\DESKTOP\MAGSHIMIM\YEAR B - GRADE 11\ADVANCED PROGRAMMING\סמסטר ב\LESSON 15 - THE TRIVIA PROJECT\TRIVIA\SERVER\SERVER\X64\DEBUG\VC141.IDB
C:\USERS\USER\DESKTOP\MAGSHIMIM\YEAR B - GRADE 11\ADVANCED PROGRAMMING\סמסטר ב\LESSON 15 - THE TRIVIA PROJECT\TRIVIA\SERVER\SERVER\X64\DEBUG\RESPONSE.OBJ
C:\USERS\USER\DESKTOP\MAGSHIMIM\YEAR B - GRADE 11\ADVANCED PROGRAMMING\סמסטר ב\LESSON 15 - THE TRIVIA PROJECT\TRIVIA\SERVER\SERVER\X64\DEBUG\REQUEST.OBJ
^C:\USERS\USER\DESKTOP\MAGSHIMIM\YEAR B - GRADE 11\ADVANCED PROGRAMMING\סמסטר ב\LESSON 15 - THE TRIVIA PROJECT\TRIVIA\SERVER\SERVER\HANDLERS.CPP|C:\USERS\USER\DESKTOP\MAGSHIMIM\YEAR B - GRADE 11\ADVANCED PROGRAMMING\סמסטר ב\LESSON 15 - THE TRIVIA PROJECT\TRIVIA\SERVER\SERVER\INFRASTRUCTURE.CPP|C:\USERS\USER\DESKTOP\MAGSHIMIM\YEAR B - GRADE 11\ADVANCED PROGRAMMING\סמסטר ב\LESSON 15 - THE TRIVIA PROJECT\TRIVIA\SERVER\SERVER\MANAGERS.CPP|C:\USERS\USER\DESKTOP\MAGSHIMIM\YEAR B - GRADE 11\ADVANCED PROGRAMMING\סמסטר ב\LESSON 15 - THE TRIVIA PROJECT\TRIVIA\SERVER\SERVER\SOURCE.CPP
C:\USERS\USER\DESKTOP\MAGSHIMIM\YEAR B - GRADE 11\ADVANCED PROGRAMMING\סמסטר ב\LESSON 15 - THE TRIVIA PROJECT\TRIVIA\SERVER\SERVER\X64\DEBUG\VC141.PDB
C:\USERS\USER\DESKTOP\MAGSHIMIM\YEAR B - GRADE 11\ADVANCED PROGRAMMING\סמסטר ב\LESSON 15 - THE TRIVIA PROJECT\TRIVIA\SERVER\SERVER\X64\DEBUG\VC141.IDB
C:\USERS\USER\DESKTOP\MAGSHIMIM\YEAR B - GRADE 11\ADVANCED PROGRAMMING\סמסטר ב\LESSON 15 - THE TRIVIA PROJECT\TRIVIA\SERVER\SERVER\X64\DEBUG\SOURCE.OBJ
^C:\USERS\USER\DESKTOP\MAGSHIMIM\YEAR B - GRADE 11\ADVANCED PROGRAMMING\סמסטר ב\LESSON 15 - THE TRIVIA PROJECT\TRIVIA\SERVER\SERVER\COMMUNICATOR.CPP|C:\USERS\USER\DESKTOP\MAGSHIMIM\YEAR B - GRADE 11\ADVANCED PROGRAMMING\סמסטר ב\LESSON 15 - THE TRIVIA PROJECT\TRIVIA\SERVER\SERVER\IDATABASE.CPP|C:\USERS\USER\DESKTOP\MAGSHIMIM\YEAR B - GRADE 11\ADVANCED PROGRAMMING\סמסטר ב\LESSON 15 - THE TRIVIA PROJECT\TRIVIA\SERVER\SERVER\JSONREQUESTPACKETSERIALIZER.CPP|C:\USERS\USER\DESKTOP\MAGSHIMIM\YEAR B - GRADE 11\ADVANCED PROGRAMMING\סמסטר ב\LESSON 15 - THE TRIVIA PROJECT\TRIVIA\SERVER\SERVER\JSONRESPONSEPACKETSERIALIZER.CPP|C:\USERS\USER\DESKTOP\MAGSHIMIM\YEAR B - GRADE 11\ADVANCED PROGRAMMING\סמסטר ב\LESSON 15 - THE TRIVIA PROJECT\TRIVIA\SERVER\SERVER\LOGGEDUSER.CPP|C:\USERS\USER\DESKTOP\MAGSHIMIM\YEAR B - GRADE 11\ADVANCED PROGRAMMING\סמסטר ב\LESSON 15 - THE TRIVIA PROJECT\TRIVIA\SERVER\SERVER\LOGINMANAGER.CPP|C:\USERS\USER\DESKTOP\MAGSHIMIM\YEAR B - GRADE 11\ADVANCED PROGRAMMING\סמסטר ב\LESSON 15 - THE TRIVIA PROJECT\TRIVIA\SERVER\SERVER\LOGINREQUESTHANDLER.CPP|C:\USERS\USER\DESKTOP\MAGSHIMIM\YEAR B - GRADE 11\ADVANCED PROGRAMMING\סמסטר ב\LESSON 15 - THE TRIVIA PROJECT\TRIVIA\SERVER\SERVER\QUESTION.CPP|C:\USERS\USER\DESKTOP\MAGSHIMIM\YEAR B - GRADE 11\ADVANCED PROGRAMMING\סמסטר ב\LESSON 15 - THE TRIVIA PROJECT\TRIVIA\SERVER\SERVER\REQUESTHANDLERFACTORY.CPP|C:\USERS\USER\DESKTOP\MAGSHIMIM\YEAR B - GRADE 11\ADVANCED PROGRAMMING\סמסטר ב\LESSON 15 - THE TRIVIA PROJECT\TRIVIA\SERVER\SERVER\SERVER.CPP
C:\USERS\USER\DESKTOP\MAGSHIMIM\YEAR B - GRADE 11\ADVANCED PROGRAMMING\סמסטר ב\LESSON 15 - THE TRIVIA PROJECT\TRIVIA\SERVER\SERVER\X64\DEBUG\VC141.PDB
C:\USERS\USER\DESKTOP\MAGSHIMIM\YEAR B - GRADE 11\ADVANCED PROGRAMMING\סמסטר ב\LESSON 15 - THE TRIVIA PROJECT\TRIVIA\SERVER\SERVER\X64\DEBUG\VC141.IDB
C:\USERS\USER\DESKTOP\MAGSHIMIM\YEAR B - GRADE 11\ADVANCED PROGRAMMING\סמסטר ב\LESSON 15 - THE TRIVIA PROJECT\TRIVIA\SERVER\SERVER\X64\DEBUG\QUESTION.OBJ
C:\USERS\USER\DESKTOP\MAGSHIMIM\YEAR B - GRADE 11\ADVANCED PROGRAMMING\סמסטר ב\LESSON 15 - THE TRIVIA PROJECT\TRIVIA\SERVER\SERVER\X64\DEBUG\LOGINMANAGER.OBJ
C:\USERS\USER\DESKTOP\MAGSHIMIM\YEAR B - GRADE 11\ADVANCED PROGRAMMING\סמסטר ב\LESSON 15 - THE TRIVIA PROJECT\TRIVIA\SERVER\SERVER\X64\DEBUG\LOGGEDUSER.OBJ
C:\USERS\USER\DESKTOP\MAGSHIMIM\YEAR B - GRADE 11\ADVANCED PROGRAMMING\סמסטר ב\LESSON 15 - THE TRIVIA PROJECT\TRIVIA\SERVER\SERVER\X64\DEBUG\JSONRESPONSEPACKETSERIALIZER.OBJ
C:\USERS\USER\DESKTOP\MAGSHIMIM\YEAR B - GRADE 11\ADVANCED PROGRAMMING\סמסטר ב\LESSON 15 - THE TRIVIA PROJECT\TRIVIA\SERVER\SERVER\X64\DEBUG\JSONREQUESTPACKETSERIALIZER.OBJ
C:\USERS\USER\DESKTOP\MAGSHIMIM\YEAR B - GRADE 11\ADVANCED PROGRAMMING\סמסטר ב\LESSON 15 - THE TRIVIA PROJECT\TRIVIA\SERVER\SERVER\X64\DEBUG\IDATABASE.OBJ
^C:\USERS\USER\DESKTOP\MAGSHIMIM\YEAR B - GRADE 11\ADVANCED PROGRAMMING\סמסטר ב\LESSON 15 - THE TRIVIA PROJECT\TRIVIA\SERVER\SERVER\LOGGEDUSER.CPP
C:\USERS\USER\DESKTOP\MAGSHIMIM\YEAR B - GRADE 11\ADVANCED PROGRAMMING\סמסטר ב\LESSON 15 - THE TRIVIA PROJECT\TRIVIA\SERVER\SERVER\X64\DEBUG\LOGGEDUSER.OBJ
^C:\USERS\USER\DESKTOP\MAGSHIMIM\YEAR B - GRADE 11\ADVANCED PROGRAMMING\סמסטר ב\LESSON 15 - THE TRIVIA PROJECT\TRIVIA\SERVER\SERVER\LOGINMANAGER.CPP
C:\USERS\USER\DESKTOP\MAGSHIMIM\YEAR B - GRADE 11\ADVANCED PROGRAMMING\סמסטר ב\LESSON 15 - THE TRIVIA PROJECT\TRIVIA\SERVER\SERVER\X64\DEBUG\LOGINMANAGER.OBJ
^C:\USERS\USER\DESKTOP\MAGSHIMIM\YEAR B - GRADE 11\ADVANCED PROGRAMMING\סמסטר ב\LESSON 15 - THE TRIVIA PROJECT\TRIVIA\SERVER\SERVER\QUESTION.CPP
C:\USERS\USER\DESKTOP\MAGSHIMIM\YEAR B - GRADE 11\ADVANCED PROGRAMMING\סמסטר ב\LESSON 15 - THE TRIVIA PROJECT\TRIVIA\SERVER\SERVER\X64\DEBUG\QUESTION.OBJ
^C:\USERS\USER\DESKTOP\MAGSHIMIM\YEAR B - GRADE 11\ADVANCED PROGRAMMING\סמסטר ב\LESSON 15 - THE TRIVIA PROJECT\TRIVIA\SERVER\SERVER\COMMUNICATOR.CPP|C:\USERS\USER\DESKTOP\MAGSHIMIM\YEAR B - GRADE 11\ADVANCED PROGRAMMING\סמסטר ב\LESSON 15 - THE TRIVIA PROJECT\TRIVIA\SERVER\SERVER\JSONREQUESTPACKETSERIALIZER.CPP|C:\USERS\USER\DESKTOP\MAGSHIMIM\YEAR B - GRADE 11\ADVANCED PROGRAMMING\סמסטר ב\LESSON 15 - THE TRIVIA PROJECT\TRIVIA\SERVER\SERVER\LOGINREQUESTHANDLER.CPP|C:\USERS\USER\DESKTOP\MAGSHIMIM\YEAR B - GRADE 11\ADVANCED PROGRAMMING\סמסטר ב\LESSON 15 - THE TRIVIA PROJECT\TRIVIA\SERVER\SERVER\REQUESTHANDLERFACTORY.CPP|C:\USERS\USER\DESKTOP\MAGSHIMIM\YEAR B - GRADE 11\ADVANCED PROGRAMMING\סמסטר ב\LESSON 15 - THE TRIVIA PROJECT\TRIVIA\SERVER\SERVER\SERVER.CPP
C:\USERS\USER\DESKTOP\MAGSHIMIM\YEAR B - GRADE 11\ADVANCED PROGRAMMING\סמסטר ב\LESSON 15 - THE TRIVIA PROJECT\TRIVIA\SERVER\SERVER\X64\DEBUG\VC141.PDB
C:\USERS\USER\DESKTOP\MAGSHIMIM\YEAR B - GRADE 11\ADVANCED PROGRAMMING\סמסטר ב\LESSON 15 - THE TRIVIA PROJECT\TRIVIA\SERVER\SERVER\X64\DEBUG\VC141.IDB
C:\USERS\USER\DESKTOP\MAGSHIMIM\YEAR B - GRADE 11\ADVANCED PROGRAMMING\סמסטר ב\LESSON 15 - THE TRIVIA PROJECT\TRIVIA\SERVER\SERVER\X64\DEBUG\JSONREQUESTPACKETSERIALIZER.OBJ
^C:\USERS\USER\DESKTOP\MAGSHIMIM\YEAR B - GRADE 11\ADVANCED PROGRAMMING\סמסטר ב\LESSON 15 - THE TRIVIA PROJECT\TRIVIA\SERVER\SERVER\COMMUNICATOR.CPP|C:\USERS\USER\DESKTOP\MAGSHIMIM\YEAR B - GRADE 11\ADVANCED PROGRAMMING\סמסטר ב\LESSON 15 - THE TRIVIA PROJECT\TRIVIA\SERVER\SERVER\LOGINREQUESTHANDLER.CPP|C:\USERS\USER\DESKTOP\MAGSHIMIM\YEAR B - GRADE 11\ADVANCED PROGRAMMING\סמסטר ב\LESSON 15 - THE TRIVIA PROJECT\TRIVIA\SERVER\SERVER\REQUESTHANDLERFACTORY.CPP|C:\USERS\USER\DESKTOP\MAGSHIMIM\YEAR B - GRADE 11\ADVANCED PROGRAMMING\סמסטר ב\LESSON 15 - THE TRIVIA PROJECT\TRIVIA\SERVER\SERVER\SERVER.CPP
C:\USERS\USER\DESKTOP\MAGSHIMIM\YEAR B - GRADE 11\ADVANCED PROGRAMMING\סמסטר ב\LESSON 15 - THE TRIVIA PROJECT\TRIVIA\SERVER\SERVER\X64\DEBUG\VC141.PDB
C:\USERS\USER\DESKTOP\MAGSHIMIM\YEAR B - GRADE 11\ADVANCED PROGRAMMING\סמסטר ב\LESSON 15 - THE TRIVIA PROJECT\TRIVIA\SERVER\SERVER\X64\DEBUG\VC141.IDB
C:\USERS\USER\DESKTOP\MAGSHIMIM\YEAR B - GRADE 11\ADVANCED PROGRAMMING\סמסטר ב\LESSON 15 - THE TRIVIA PROJECT\TRIVIA\SERVER\SERVER\X64\DEBUG\SERVER.OBJ
C:\USERS\USER\DESKTOP\MAGSHIMIM\YEAR B - GRADE 11\ADVANCED PROGRAMMING\סמסטר ב\LESSON 15 - THE TRIVIA PROJECT\TRIVIA\SERVER\SERVER\X64\DEBUG\REQUESTHANDLERFACTORY.OBJ
C:\USERS\USER\DESKTOP\MAGSHIMIM\YEAR B - GRADE 11\ADVANCED PROGRAMMING\סמסטר ב\LESSON 15 - THE TRIVIA PROJECT\TRIVIA\SERVER\SERVER\X64\DEBUG\LOGINREQUESTHANDLER.OBJ
C:\USERS\USER\DESKTOP\MAGSHIMIM\YEAR B - GRADE 11\ADVANCED PROGRAMMING\סמסטר ב\LESSON 15 - THE TRIVIA PROJECT\TRIVIA\SERVER\SERVER\X64\DEBUG\COMMUNICATOR.OBJ
^C:\USERS\USER\DESKTOP\MAGSHIMIM\YEAR B - GRADE 11\ADVANCED PROGRAMMING\סמסטר ב\LESSON 15 - THE TRIVIA PROJECT\TRIVIA\SERVER\SERVER\LOGINREQUESTHANDLER.CPP
C:\USERS\USER\DESKTOP\MAGSHIMIM\YEAR B - GRADE 11\ADVANCED PROGRAMMING\סמסטר ב\LESSON 15 - THE TRIVIA PROJECT\TRIVIA\SERVER\SERVER\X64\DEBUG\VC141.PDB
^C:\USERS\USER\DESKTOP\MAGSHIMIM\YEAR B - GRADE 11\ADVANCED PROGRAMMING\סמסטר ב\LESSON 15 - THE TRIVIA PROJECT\TRIVIA\SERVER\SERVER\REQUESTHANDLERFACTORY.CPP
C:\USERS\USER\DESKTOP\MAGSHIMIM\YEAR B - GRADE 11\ADVANCED PROGRAMMING\סמסטר ב\LESSON 15 - THE TRIVIA PROJECT\TRIVIA\SERVER\SERVER\X64\DEBUG\VC141.PDB
^C:\USERS\USER\DESKTOP\MAGSHIMIM\YEAR B - GRADE 11\ADVANCED PROGRAMMING\סמסטר ב\LESSON 15 - THE TRIVIA PROJECT\TRIVIA\SERVER\SERVER\COMMUNICATOR.CPP|C:\USERS\USER\DESKTOP\MAGSHIMIM\YEAR B - GRADE 11\ADVANCED PROGRAMMING\סמסטר ב\LESSON 15 - THE TRIVIA PROJECT\TRIVIA\SERVER\SERVER\SERVER.CPP|C:\USERS\USER\DESKTOP\MAGSHIMIM\YEAR B - GRADE 11\ADVANCED PROGRAMMING\סמסטר ב\LESSON 15 - THE TRIVIA PROJECT\TRIVIA\SERVER\SERVER\SOURCE.CPP
C:\USERS\USER\DESKTOP\MAGSHIMIM\YEAR B - GRADE 11\ADVANCED PROGRAMMING\סמסטר ב\LESSON 15 - THE TRIVIA PROJECT\TRIVIA\SERVER\SERVER\X64\DEBUG\VC141.PDB
C:\USERS\USER\DESKTOP\MAGSHIMIM\YEAR B - GRADE 11\ADVANCED PROGRAMMING\סמסטר ב\LESSON 15 - THE TRIVIA PROJECT\TRIVIA\SERVER\SERVER\X64\DEBUG\VC141.IDB
C:\USERS\USER\DESKTOP\MAGSHIMIM\YEAR B - GRADE 11\ADVANCED PROGRAMMING\סמסטר ב\LESSON 15 - THE TRIVIA PROJECT\TRIVIA\SERVER\SERVER\X64\DEBUG\SOURCE.OBJ
C:\USERS\USER\DESKTOP\MAGSHIMIM\YEAR B - GRADE 11\ADVANCED PROGRAMMING\סמסטר ב\LESSON 15 - THE TRIVIA PROJECT\TRIVIA\SERVER\SERVER\X64\DEBUG\SERVER.OBJ
C:\USERS\USER\DESKTOP\MAGSHIMIM\YEAR B - GRADE 11\ADVANCED PROGRAMMING\סמסטר ב\LESSON 15 - THE TRIVIA PROJECT\TRIVIA\SERVER\SERVER\X64\DEBUG\COMMUNICATOR.OBJ
^C:\USERS\USER\DESKTOP\MAGSHIMIM\YEAR B - GRADE 11\ADVANCED PROGRAMMING\סמסטר ב\LESSON 15 - THE TRIVIA PROJECT\TRIVIA\SERVER\SERVER\SERVER.CPP
C:\USERS\USER\DESKTOP\MAGSHIMIM\YEAR B - GRADE 11\ADVANCED PROGRAMMING\סמסטר ב\LESSON 15 - THE TRIVIA PROJECT\TRIVIA\SERVER\SERVER\X64\DEBUG\VC141.PDB
^C:\USERS\USER\DESKTOP\MAGSHIMIM\YEAR B - GRADE 11\ADVANCED PROGRAMMING\סמסטר ב\LESSON 15 - THE TRIVIA PROJECT\TRIVIA\SERVER\SERVER\SOURCE.CPP
C:\USERS\USER\DESKTOP\MAGSHIMIM\YEAR B - GRADE 11\ADVANCED PROGRAMMING\סמסטר ב\LESSON 15 - THE TRIVIA PROJECT\TRIVIA\SERVER\SERVER\X64\DEBUG\VC141.PDB
^C:\USERS\USER\DESKTOP\MAGSHIMIM\YEAR B - GRADE 11\ADVANCED PROGRAMMING\סמסטר ב\LESSON 15 - THE TRIVIA PROJECT\TRIVIA\SERVER\SERVER\COMMUNICATOR.CPP|C:\USERS\USER\DESKTOP\MAGSHIMIM\YEAR B - GRADE 11\ADVANCED PROGRAMMING\סמסטר ב\LESSON 15 - THE TRIVIA PROJECT\TRIVIA\SERVER\SERVER\HIGHSCORETABLE.CPP|C:\USERS\USER\DESKTOP\MAGSHIMIM\YEAR B - GRADE 11\ADVANCED PROGRAMMING\סמסטר ב\LESSON 15 - THE TRIVIA PROJECT\TRIVIA\SERVER\SERVER\JSONREQUESTPACKETDESERIALIZER.CPP|C:\USERS\USER\DESKTOP\MAGSHIMIM\YEAR B - GRADE 11\ADVANCED PROGRAMMING\סמסטר ב\LESSON 15 - THE TRIVIA PROJECT\TRIVIA\SERVER\SERVER\JSONRESPONSEPACKETSERIALIZER.CPP|C:\USERS\USER\DESKTOP\MAGSHIMIM\YEAR B - GRADE 11\ADVANCED PROGRAMMING\סמסטר ב\LESSON 15 - THE TRIVIA PROJECT\TRIVIA\SERVER\SERVER\MENUREQUESTHANDLER.CPP|C:\USERS\USER\DESKTOP\MAGSHIMIM\YEAR B - GRADE 11\ADVANCED PROGRAMMING\סמסטר ב\LESSON 15 - THE TRIVIA PROJECT\TRIVIA\SERVER\SERVER\RESPONSECODE.CPP|C:\USERS\USER\DESKTOP\MAGSHIMIM\YEAR B - GRADE 11\ADVANCED PROGRAMMING\סמסטר ב\LESSON 15 - THE TRIVIA PROJECT\TRIVIA\SERVER\SERVER\ROOM.CPP|C:\USERS\USER\DESKTOP\MAGSHIMIM\YEAR B - GRADE 11\ADVANCED PROGRAMMING\סמסטר ב\LESSON 15 - THE TRIVIA PROJECT\TRIVIA\SERVER\SERVER\ROOMMANAGER.CPP|C:\USERS\USER\DESKTOP\MAGSHIMIM\YEAR B - GRADE 11\ADVANCED PROGRAMMING\סמסטר ב\LESSON 15 - THE TRIVIA PROJECT\TRIVIA\SERVER\SERVER\SQLITE.CPP|C:\USERS\USER\DESKTOP\MAGSHIMIM\YEAR B - GRADE 11\ADVANCED PROGRAMMING\סמסטר ב\LESSON 15 - THE TRIVIA PROJECT\TRIVIA\SERVER\SERVER\SQL_CALLBACKS.CPP|C:\USERS\USER\DESKTOP\MAGSHIMIM\YEAR B - GRADE 11\ADVANCED PROGRAMMING\סמסטר ב\LESSON 15 - THE TRIVIA PROJECT\TRIVIA\SERVER\SERVER\WSAINITIALIZER.CPP
C:\USERS\USER\DESKTOP\MAGSHIMIM\YEAR B - GRADE 11\ADVANCED PROGRAMMING\סמסטר ב\LESSON 15 - THE TRIVIA PROJECT\TRIVIA\SERVER\SERVER\X64\DEBUG\VC141.PDB
C:\USERS\USER\DESKTOP\MAGSHIMIM\YEAR B - GRADE 11\ADVANCED PROGRAMMING\סמסטר ב\LESSON 15 - THE TRIVIA PROJECT\TRIVIA\SERVER\SERVER\X64\DEBUG\VC141.IDB
C:\USERS\USER\DESKTOP\MAGSHIMIM\YEAR B - GRADE 11\ADVANCED PROGRAMMING\סמסטר ב\LESSON 15 - THE TRIVIA PROJECT\TRIVIA\SERVER\SERVER\X64\DEBUG\SQL_CALLBACKS.OBJ
C:\USERS\USER\DESKTOP\MAGSHIMIM\YEAR B - GRADE 11\ADVANCED PROGRAMMING\סמסטר ב\LESSON 15 - THE TRIVIA PROJECT\TRIVIA\SERVER\SERVER\X64\DEBUG\WSAINITIALIZER.OBJ
C:\USERS\USER\DESKTOP\MAGSHIMIM\YEAR B - GRADE 11\ADVANCED PROGRAMMING\סמסטר ב\LESSON 15 - THE TRIVIA PROJECT\TRIVIA\SERVER\SERVER\X64\DEBUG\SQLITE.OBJ
C:\USERS\USER\DESKTOP\MAGSHIMIM\YEAR B - GRADE 11\ADVANCED PROGRAMMING\סמסטר ב\LESSON 15 - THE TRIVIA PROJECT\TRIVIA\SERVER\SERVER\X64\DEBUG\ROOMMANAGER.OBJ
C:\USERS\USER\DESKTOP\MAGSHIMIM\YEAR B - GRADE 11\ADVANCED PROGRAMMING\סמסטר ב\LESSON 15 - THE TRIVIA PROJECT\TRIVIA\SERVER\SERVER\X64\DEBUG\ROOM.OBJ
C:\USERS\USER\DESKTOP\MAGSHIMIM\YEAR B - GRADE 11\ADVANCED PROGRAMMING\סמסטר ב\LESSON 15 - THE TRIVIA PROJECT\TRIVIA\SERVER\SERVER\X64\DEBUG\RESPONSECODE.OBJ
C:\USERS\USER\DESKTOP\MAGSHIMIM\YEAR B - GRADE 11\ADVANCED PROGRAMMING\סמסטר ב\LESSON 15 - THE TRIVIA PROJECT\TRIVIA\SERVER\SERVER\X64\DEBUG\MENUREQUESTHANDLER.OBJ
C:\USERS\USER\DESKTOP\MAGSHIMIM\YEAR B - GRADE 11\ADVANCED PROGRAMMING\סמסטר ב\LESSON 15 - THE TRIVIA PROJECT\TRIVIA\SERVER\SERVER\X64\DEBUG\JSONRESPONSEPACKETSERIALIZER.OBJ
C:\USERS\USER\DESKTOP\MAGSHIMIM\YEAR B - GRADE 11\ADVANCED PROGRAMMING\סמסטר ב\LESSON 15 - THE TRIVIA PROJECT\TRIVIA\SERVER\SERVER\X64\DEBUG\JSONREQUESTPACKETDESERIALIZER.OBJ
C:\USERS\USER\DESKTOP\MAGSHIMIM\YEAR B - GRADE 11\ADVANCED PROGRAMMING\סמסטר ב\LESSON 15 - THE TRIVIA PROJECT\TRIVIA\SERVER\SERVER\X64\DEBUG\HIGHSCORETABLE.OBJ
C:\USERS\USER\DESKTOP\MAGSHIMIM\YEAR B - GRADE 11\ADVANCED PROGRAMMING\סמסטר ב\LESSON 15 - THE TRIVIA PROJECT\TRIVIA\SERVER\SERVER\X64\DEBUG\COMMUNICATOR.OBJ
^C:\USERS\USER\DESKTOP\MAGSHIMIM\YEAR B - GRADE 11\ADVANCED PROGRAMMING\סמסטר ב\LESSON 15 - THE TRIVIA PROJECT\TRIVIA\SERVER\SERVER\COMMUNICATOR.CPP
C:\USERS\USER\DESKTOP\MAGSHIMIM\YEAR B - GRADE 11\ADVANCED PROGRAMMING\סמסטר ב\LESSON 15 - THE TRIVIA PROJECT\TRIVIA\SERVER\SERVER\X64\DEBUG\VC141.PDB
^C:\USERS\USER\DESKTOP\MAGSHIMIM\YEAR B - GRADE 11\ADVANCED PROGRAMMING\סמסטר ב\LESSON 15 - THE TRIVIA PROJECT\TRIVIA\SERVER\SERVER\HIGHSCORETABLE.CPP
C:\USERS\USER\DESKTOP\MAGSHIMIM\YEAR B - GRADE 11\ADVANCED PROGRAMMING\סמסטר ב\LESSON 15 - THE TRIVIA PROJECT\TRIVIA\SERVER\SERVER\X64\DEBUG\VC141.PDB
^C:\USERS\USER\DESKTOP\MAGSHIMIM\YEAR B - GRADE 11\ADVANCED PROGRAMMING\סמסטר ב\LESSON 15 - THE TRIVIA PROJECT\TRIVIA\SERVER\SERVER\JSONREQUESTPACKETDESERIALIZER.CPP
C:\USERS\USER\DESKTOP\MAGSHIMIM\YEAR B - GRADE 11\ADVANCED PROGRAMMING\סמסטר ב\LESSON 15 - THE TRIVIA PROJECT\TRIVIA\SERVER\SERVER\X64\DEBUG\VC141.PDB
^C:\USERS\USER\DESKTOP\MAGSHIMIM\YEAR B - GRADE 11\ADVANCED PROGRAMMING\סמסטר ב\LESSON 15 - THE TRIVIA PROJECT\TRIVIA\SERVER\SERVER\JSONRESPONSEPACKETSERIALIZER.CPP
C:\USERS\USER\DESKTOP\MAGSHIMIM\YEAR B - GRADE 11\ADVANCED PROGRAMMING\סמסטר ב\LESSON 15 - THE TRIVIA PROJECT\TRIVIA\SERVER\SERVER\X64\DEBUG\VC141.PDB
^C:\USERS\USER\DESKTOP\MAGSHIMIM\YEAR B - GRADE 11\ADVANCED PROGRAMMING\סמסטר ב\LESSON 15 - THE TRIVIA PROJECT\TRIVIA\SERVER\SERVER\MENUREQUESTHANDLER.CPP
C:\USERS\USER\DESKTOP\MAGSHIMIM\YEAR B - GRADE 11\ADVANCED PROGRAMMING\סמסטר ב\LESSON 15 - THE TRIVIA PROJECT\TRIVIA\SERVER\SERVER\X64\DEBUG\VC141.PDB
^C:\USERS\USER\DESKTOP\MAGSHIMIM\YEAR B - GRADE 11\ADVANCED PROGRAMMING\סמסטר ב\LESSON 15 - THE TRIVIA PROJECT\TRIVIA\SERVER\SERVER\RESPONSECODE.CPP
C:\USERS\USER\DESKTOP\MAGSHIMIM\YEAR B - GRADE 11\ADVANCED PROGRAMMING\סמסטר ב\LESSON 15 - THE TRIVIA PROJECT\TRIVIA\SERVER\SERVER\X64\DEBUG\VC141.PDB
^C:\USERS\USER\DESKTOP\MAGSHIMIM\YEAR B - GRADE 11\ADVANCED PROGRAMMING\סמסטר ב\LESSON 15 - THE TRIVIA PROJECT\TRIVIA\SERVER\SERVER\ROOM.CPP
C:\USERS\USER\DESKTOP\MAGSHIMIM\YEAR B - GRADE 11\ADVANCED PROGRAMMING\סמסטר ב\LESSON 15 - THE TRIVIA PROJECT\TRIVIA\SERVER\SERVER\X64\DEBUG\VC141.PDB
^C:\USERS\USER\DESKTOP\MAGSHIMIM\YEAR B - GRADE 11\ADVANCED PROGRAMMING\סמסטר ב\LESSON 15 - THE TRIVIA PROJECT\TRIVIA\SERVER\SERVER\ROOMMANAGER.CPP
C:\USERS\USER\DESKTOP\MAGSHIMIM\YEAR B - GRADE 11\ADVANCED PROGRAMMING\סמסטר ב\LESSON 15 - THE TRIVIA PROJECT\TRIVIA\SERVER\SERVER\X64\DEBUG\VC141.PDB
^C:\USERS\USER\DESKTOP\MAGSHIMIM\YEAR B - GRADE 11\ADVANCED PROGRAMMING\סמסטר ב\LESSON 15 - THE TRIVIA PROJECT\TRIVIA\SERVER\SERVER\SQLITE.CPP
C:\USERS\USER\DESKTOP\MAGSHIMIM\YEAR B - GRADE 11\ADVANCED PROGRAMMING\סמסטר ב\LESSON 15 - THE TRIVIA PROJECT\TRIVIA\SERVER\SERVER\X64\DEBUG\VC141.PDB
^C:\USERS\USER\DESKTOP\MAGSHIMIM\YEAR B - GRADE 11\ADVANCED PROGRAMMING\סמסטר ב\LESSON 15 - THE TRIVIA PROJECT\TRIVIA\SERVER\SERVER\WSAINITIALIZER.CPP
C:\USERS\USER\DESKTOP\MAGSHIMIM\YEAR B - GRADE 11\ADVANCED PROGRAMMING\סמסטר ב\LESSON 15 - THE TRIVIA PROJECT\TRIVIA\SERVER\SERVER\X64\DEBUG\VC141.PDB
^C:\USERS\USER\DESKTOP\MAGSHIMIM\YEAR B - GRADE 11\ADVANCED PROGRAMMING\סמסטר ב\LESSON 15 - THE TRIVIA PROJECT\TRIVIA\SERVER\SERVER\SQL_CALLBACKS.CPP
C:\USERS\USER\DESKTOP\MAGSHIMIM\YEAR B - GRADE 11\ADVANCED PROGRAMMING\סמסטר ב\LESSON 15 - THE TRIVIA PROJECT\TRIVIA\SERVER\SERVER\X64\DEBUG\VC141.PDB
^C:\USERS\USER\DESKTOP\MAGSHIMIM\YEAR B - GRADE 11\ADVANCED PROGRAMMING\סמסטר ב\LESSON 15 - THE TRIVIA PROJECT\TRIVIA\SERVER\SERVER\SQLITE3.C
C:\USERS\USER\DESKTOP\MAGSHIMIM\YEAR B - GRADE 11\ADVANCED PROGRAMMING\סמסטר ב\LESSON 15 - THE TRIVIA PROJECT\TRIVIA\SERVER\SERVER\X64\DEBUG\VC141.PDB
C:\USERS\USER\DESKTOP\MAGSHIMIM\YEAR B - GRADE 11\ADVANCED PROGRAMMING\סמסטר ב\LESSON 15 - THE TRIVIA PROJECT\TRIVIA\SERVER\SERVER\X64\DEBUG\VC141.IDB
C:\USERS\USER\DESKTOP\MAGSHIMIM\YEAR B - GRADE 11\ADVANCED PROGRAMMING\סמסטר ב\LESSON 15 - THE TRIVIA PROJECT\TRIVIA\SERVER\SERVER\X64\DEBUG\SQLITE3.OBJ
